<?xml version="1.0" encoding="UTF-8"?>
<svg width="42px" height="27px" viewBox="0 0 42 27" version="1.1" xmlns="http://www.w3.org/2000/svg" xmlns:xlink="http://www.w3.org/1999/xlink">
    <!-- Generator: Sketch 59.1 (86144) - https://sketch.com -->
    <title>header-service-message</title>
    <desc>Created with Sketch.</desc>
    <g id="Page-1" stroke="none" stroke-width="1" fill="none" fill-rule="evenodd">
        <g id="header-service-message" transform="translate(2.000000, 2.000000)" stroke="#873E2A" stroke-width="4">
            <line x1="2" y1="21" x2="11" y2="12" id="Line-3"></line>
            <line x1="27" y1="21" x2="36" y2="12" id="Line-3-Copy" transform="translate(31.500000, 16.500000) scale(-1, 1) translate(-31.500000, -16.500000) "></line>
            <polygon id="Line" stroke-linecap="square" points="0 0 38 0 38 23 0 23"></polygon>
            <polyline id="Line-2" points="2 2 16 14 22 14 36 2"></polyline>
        </g>
    </g>
</svg>